<svg width="161" height="129" viewBox="0 0 161 129" fill="none" xmlns="http://www.w3.org/2000/svg">
<path d="M3.45972 74.978C3.45972 69.9789 4.82826 67.3767 7.43053 65.3907L87.4169 98.3984C83.3765 110.725 86.7428 121.846 90.7724 124.969L9.07512 87.6469C6.75807 85.8336 3.45972 81.3467 3.45972 74.978Z" fill="white"/>
<path fill-rule="evenodd" clip-rule="evenodd" d="M5.56311 62.9438C6.43387 62.2792 7.59218 62.1275 8.60471 62.5453L88.5911 95.553C90.0802 96.1675 90.8437 97.8263 90.3419 99.3571C88.4842 105.025 88.3455 110.371 89.0987 114.594C89.8816 118.984 91.5193 121.653 92.658 122.536C93.8933 123.493 94.2151 125.224 93.4064 126.562C92.5976 127.899 90.915 128.418 89.4934 127.769L7.79608 90.4467C7.57602 90.3462 7.36858 90.22 7.17805 90.0709C4.21077 87.7487 0.381592 82.408 0.381592 74.978C0.381592 72.214 0.757344 69.8568 1.64977 67.8194C2.56257 65.7355 3.92449 64.1943 5.56311 62.9438ZM9.07512 87.6469C6.75807 85.8335 3.45972 81.3467 3.45972 74.978C3.45972 69.9789 4.82826 67.3766 7.43053 65.3907L87.4169 98.3983C84.6088 106.965 85.3784 114.95 87.4619 120.072C88.3762 122.32 89.5435 124.016 90.7724 124.969L9.07512 87.6469Z" fill="black"/>
<path d="M157.54 33.9517L80.1708 4.03149L7.03247 65.6853L91.0508 101.046L157.54 33.9517Z" fill="black"/>
<path fill-rule="evenodd" clip-rule="evenodd" d="M78.1868 1.67799C79.0463 0.953441 80.2325 0.755078 81.2809 1.16055L158.65 31.0808C159.619 31.4553 160.333 32.2931 160.55 33.3086C160.767 34.3242 160.458 35.3807 159.727 36.1184L93.2372 103.212C92.3528 104.105 91.0148 104.37 89.8568 103.883L5.83837 68.5223C4.85086 68.1067 4.1505 67.2076 3.98931 66.1483C3.82812 65.0891 4.2293 64.0223 5.04847 63.3318L78.1868 1.67799ZM80.1707 4.03148L157.54 33.9517L91.0508 101.045L7.0324 65.6852L80.1707 4.03148Z" fill="black"/>
<path d="M113.303 40.9773L79.4731 27.6921L72.9792 33.2639L106.523 47.3118L113.303 40.9773Z" fill="white"/>
<path d="M157.472 56.8985C150.077 50.8722 151.446 41.2165 157.13 34.0945L87.9641 99.4249C83.7186 109.629 87.1638 119.494 90.8409 124.934L157.472 56.8985Z" fill="white"/>
<path fill-rule="evenodd" clip-rule="evenodd" d="M159.214 31.8292C160.404 32.9234 160.544 34.7513 159.536 36.0145C157.015 39.1732 155.576 42.7467 155.473 46.0047C155.373 49.1587 156.505 52.1395 159.417 54.5122C160.088 55.0587 160.497 55.8623 160.546 56.7261C160.594 57.5898 160.277 58.4342 159.672 59.0523L93.04 127.088C92.3933 127.748 91.4839 128.083 90.5633 128C89.6427 127.916 88.8083 127.424 88.2907 126.658C84.2483 120.677 80.3512 109.709 85.1222 98.2425C85.2882 97.8435 85.5363 97.4839 85.8505 97.1872L155.016 31.8568C156.191 30.7469 158.025 30.7349 159.214 31.8292ZM157.13 34.0945L87.9641 99.4249C84.358 108.092 86.3006 116.515 89.2208 122.189C89.7386 123.195 90.2871 124.115 90.8409 124.934L157.472 56.8985C156.713 56.2798 156.046 55.6229 155.467 54.9343C152.393 51.2812 151.785 46.7389 152.922 42.3036C153.658 39.4323 155.126 36.6059 157.13 34.0945Z" fill="black"/>
<path fill-rule="evenodd" clip-rule="evenodd" d="M153.168 56.1025C153.76 56.7132 153.744 57.6876 153.133 58.2788L106.018 103.887C105.408 104.478 104.433 104.462 103.842 103.851C103.251 103.241 103.267 102.266 103.878 101.675L150.992 56.0672C151.603 55.476 152.577 55.4918 153.168 56.1025Z" fill="black"/>
<path fill-rule="evenodd" clip-rule="evenodd" d="M150.452 52.2913C151.03 52.9143 150.993 53.8881 150.37 54.4663L119.965 82.6803C119.342 83.2585 118.368 83.2221 117.79 82.599C117.212 81.9759 117.248 81.0021 117.871 80.424L148.276 52.21C148.9 51.6318 149.873 51.6682 150.452 52.2913Z" fill="black"/>
<path fill-rule="evenodd" clip-rule="evenodd" d="M20.1104 83.5351C20.4433 82.753 21.3472 82.3888 22.1293 82.7217L51.4511 95.2018C52.2332 95.5347 52.5974 96.4386 52.2645 97.2207C51.9316 98.0028 51.0277 98.367 50.2456 98.0341L20.9238 85.5539C20.1417 85.221 19.7775 84.3172 20.1104 83.5351Z" fill="black"/>
</svg>
