<svg width="95" height="156" viewBox="0 0 95 156" fill="none" xmlns="http://www.w3.org/2000/svg">
<path d="M44.127 59.0093C44.127 80.0977 46.639 96.7893 48.2147 110.505L66.1707 113.273C68.0408 105.425 77.9278 87.7547 81.7069 65.8291C85.4861 43.9034 84.6629 33.0925 81.7068 26.8676C76.791 16.5159 63.6011 16.361 55.6493 23.452C47.6975 30.5431 44.1271 51.8849 44.127 59.0093Z" fill="white"/>
<path fill-rule="evenodd" clip-rule="evenodd" d="M45.4248 113.191L45.1567 110.858C44.9095 108.706 44.6378 106.471 44.3556 104.15C42.852 91.7833 41.049 76.9542 41.049 59.0104C41.049 55.117 41.9951 47.7288 43.9311 40.4301C44.905 36.7586 46.1526 33.0192 47.7057 29.6955C49.2412 26.4095 51.1697 23.3237 53.6007 21.1558C58.1897 17.0636 64.3106 15.0282 70.0955 15.5544C75.9699 16.0888 81.5151 19.2892 84.4874 25.5483C87.8949 32.7237 88.5234 44.4046 84.7404 66.353C82.8001 77.6102 79.3005 87.7287 76.0903 95.9508C75.0471 98.6227 74.0158 101.14 73.0852 103.411C72.5949 104.608 72.1326 105.736 71.7113 106.783C70.4526 109.91 69.5716 112.282 69.165 113.988L68.5071 116.749L45.4248 113.191ZM47.4076 103.746C45.905 91.382 44.1271 76.7523 44.1271 59.0104C44.1271 51.886 47.6976 30.5442 55.6494 23.4532C63.6012 16.3621 76.791 16.517 81.7069 26.8687C84.663 33.0936 85.4861 43.9045 81.707 65.8302C79.2016 80.3655 74.0121 93.0306 70.2534 102.204C68.3423 106.868 66.8011 110.629 66.1708 113.274L48.2148 110.507C47.9647 108.33 47.6911 106.078 47.4076 103.746Z" fill="black"/>
<path fill-rule="evenodd" clip-rule="evenodd" d="M68.6291 39.8606C68.9899 39.0909 69.9063 38.7595 70.6759 39.1203L75.4254 41.3466C76.1951 41.7073 76.5265 42.6237 76.1657 43.3934C75.805 44.163 74.8886 44.4945 74.119 44.1337L69.3695 41.9074C68.5998 41.5466 68.2684 40.6302 68.6291 39.8606Z" fill="black"/>
<path fill-rule="evenodd" clip-rule="evenodd" d="M73.9756 38.8506C74.6893 39.3124 74.8935 40.2652 74.4317 40.9789L71.9828 44.7636C71.521 45.4772 70.5681 45.6814 69.8545 45.2196C69.1409 44.7579 68.9367 43.805 69.3984 43.0914L71.8474 39.3067C72.3092 38.593 73.262 38.3888 73.9756 38.8506Z" fill="black"/>
<path fill-rule="evenodd" clip-rule="evenodd" d="M66.7858 31.4358C66.1662 30.8538 66.1357 29.8798 66.7177 29.2603L70.3089 25.437C70.8908 24.8175 71.8648 24.787 72.4844 25.3689C73.1039 25.9509 73.1344 26.9249 72.5525 27.5444L68.9613 31.3677C68.3793 31.9873 67.4053 32.0177 66.7858 31.4358Z" fill="black"/>
<path fill-rule="evenodd" clip-rule="evenodd" d="M67.4861 26.04C68.1467 25.5051 69.1158 25.6069 69.6507 26.2674L72.4878 29.7707C73.0228 30.4312 72.921 31.4004 72.2604 31.9353C71.5999 32.4703 70.6307 32.3684 70.0958 31.7079L67.2587 28.2047C66.7237 27.5441 66.8255 26.575 67.4861 26.04Z" fill="black"/>
<path fill-rule="evenodd" clip-rule="evenodd" d="M52.6207 39.4831C52.4917 38.643 53.0682 37.8573 53.9084 37.7283L59.093 36.9322C59.9331 36.8032 60.7188 37.3797 60.8478 38.2199C60.9768 39.0601 60.4003 39.8457 59.5601 39.9747L54.3755 40.7708C53.5354 40.8998 52.7497 40.3233 52.6207 39.4831Z" fill="black"/>
<path fill-rule="evenodd" clip-rule="evenodd" d="M56.4988 35.6667C57.3487 35.6528 58.0489 36.3305 58.0629 37.1804L58.1367 41.6877C58.1507 42.5376 57.473 43.2379 56.6231 43.2518C55.7732 43.2657 55.0729 42.588 55.059 41.7381L54.9851 37.2308C54.9712 36.3809 55.6489 35.6806 56.4988 35.6667Z" fill="black"/>
<path fill-rule="evenodd" clip-rule="evenodd" d="M58.4543 53.3014C58.3253 52.4612 58.9018 51.6756 59.742 51.5466L64.9266 50.7505C65.7668 50.6215 66.5524 51.198 66.6814 52.0381C66.8104 52.8783 66.2339 53.6639 65.3938 53.7929L60.2091 54.589C59.369 54.718 58.5833 54.1415 58.4543 53.3014Z" fill="black"/>
<path fill-rule="evenodd" clip-rule="evenodd" d="M62.3324 49.485C63.1823 49.471 63.8825 50.1487 63.8965 50.9986L63.9703 55.5059C63.9843 56.3558 63.3066 57.0561 62.4567 57.07C61.6068 57.0839 60.9066 56.4063 60.8926 55.5564L60.8188 51.049C60.8048 50.1991 61.4825 49.4989 62.3324 49.485Z" fill="black"/>
<path fill-rule="evenodd" clip-rule="evenodd" d="M69.4208 65.1131C68.9193 64.4268 69.0691 63.4639 69.7554 62.9624L73.9907 59.8678C74.677 59.3663 75.6399 59.5161 76.1414 60.2025C76.6429 60.8888 76.493 61.8517 75.8067 62.3531L71.5714 65.4478C70.8851 65.9492 69.9222 65.7994 69.4208 65.1131Z" fill="black"/>
<path fill-rule="evenodd" clip-rule="evenodd" d="M71.1051 59.9392C71.8531 59.5354 72.7868 59.8143 73.1906 60.5623L75.3322 64.529C75.736 65.277 75.4571 66.2107 74.7091 66.6145C73.9612 67.0183 73.0275 66.7393 72.6236 65.9914L70.482 62.0247C70.0782 61.2767 70.3572 60.343 71.1051 59.9392Z" fill="black"/>
<path fill-rule="evenodd" clip-rule="evenodd" d="M54.3561 72.9788C53.8546 72.2925 54.0044 71.3296 54.6907 70.8281L58.926 67.7335C59.6123 67.232 60.5752 67.3819 61.0767 68.0682C61.5782 68.7545 61.4283 69.7174 60.742 70.2189L56.5067 73.3135C55.8204 73.8149 54.8575 73.6651 54.3561 72.9788Z" fill="black"/>
<path fill-rule="evenodd" clip-rule="evenodd" d="M56.0404 67.8049C56.7884 67.4011 57.7221 67.6801 58.1259 68.428L60.2675 72.3948C60.6713 73.1427 60.3924 74.0764 59.6444 74.4802C58.8965 74.884 57.9628 74.6051 57.5589 73.8571L55.4173 69.8904C55.0135 69.1424 55.2925 68.2087 56.0404 67.8049Z" fill="black"/>
<path fill-rule="evenodd" clip-rule="evenodd" d="M63.5803 81.5559C63.6629 80.7099 64.4156 80.0911 65.2616 80.1737L70.4822 80.6834C71.3281 80.766 71.947 81.5188 71.8644 82.3647C71.7818 83.2107 71.029 83.8296 70.1831 83.747L64.9625 83.2373C64.1165 83.1547 63.4977 82.4019 63.5803 81.5559Z" fill="black"/>
<path fill-rule="evenodd" clip-rule="evenodd" d="M68.2811 78.816C69.1081 79.0125 69.6192 79.8422 69.4227 80.6691L68.3805 85.055C68.184 85.882 67.3543 86.3931 66.5274 86.1966C65.7004 86.0001 65.1893 85.1704 65.3858 84.3434L66.428 79.9575C66.6245 79.1306 67.4542 78.6195 68.2811 78.816Z" fill="black"/>
<path fill-rule="evenodd" clip-rule="evenodd" d="M57.5069 99.9023C56.6637 100.01 55.893 99.4135 55.7854 98.5704L55.1218 93.3671C55.0143 92.524 55.6106 91.7533 56.4538 91.6457C57.2969 91.5382 58.0676 92.1345 58.1752 92.9777L58.8388 98.1809C58.9464 99.0241 58.35 99.7948 57.5069 99.9023Z" fill="black"/>
<path fill-rule="evenodd" clip-rule="evenodd" d="M53.7905 95.9283C53.7982 95.0783 54.4935 94.3955 55.3435 94.4033L59.8513 94.4443C60.7012 94.4521 61.384 95.1474 61.3762 95.9974C61.3685 96.8473 60.6732 97.5301 59.8232 97.5223L55.3155 97.4813C54.4655 97.4735 53.7827 96.7782 53.7905 95.9283Z" fill="black"/>
<path d="M54.2664 53.0214C56.8669 72.6211 52.7213 97.1007 51.3876 113.128L35.8851 116.84C33.4211 107.771 21.2644 87.558 16.0637 62.1677C10.863 36.7775 12.0426 25.8115 15.2575 18.4561C19.3152 9.17231 32.0231 2.81594 41.0029 12.2922C49.5396 21.301 53.1749 44.7945 54.2664 53.0214Z" fill="white"/>
<path fill-rule="evenodd" clip-rule="evenodd" d="M54.2703 115.602L54.4551 113.383C54.7613 109.703 55.2184 105.564 55.7134 101.081C55.7505 100.745 55.7878 100.408 55.8253 100.068C56.3608 95.2134 56.927 90.0011 57.3699 84.6684C58.2533 74.0306 58.6621 62.748 57.3178 52.6158C56.7656 48.4543 55.564 40.3772 53.4034 32.166C51.2869 24.1224 48.0937 15.2993 43.2371 10.1742C37.871 4.51138 31.1837 3.50598 25.3314 5.41146C19.6553 7.25958 14.8035 11.8082 12.437 17.2225C8.82491 25.4867 7.81781 37.2498 13.0482 62.7847C15.7084 75.7724 20.1376 87.3899 24.1698 96.8323C25.4807 99.902 26.7696 102.787 27.9348 105.394C28.5499 106.771 29.1306 108.07 29.6618 109.279C31.2397 112.87 32.3676 115.633 32.9146 117.646L33.6976 120.528L54.2703 115.602ZM52.6525 100.756C54.2834 85.9897 56.2628 68.0672 54.2664 53.0206C53.1748 44.7937 49.5396 21.3002 41.0028 12.2915C32.0231 2.81516 19.3152 9.17153 15.2575 18.4553C12.0426 25.8107 10.863 36.7767 16.0637 62.167C19.5114 78.999 26.0161 93.5556 30.7274 104.099C33.1228 109.459 35.0545 113.782 35.8851 116.839L51.3875 113.127C51.6974 109.404 52.159 105.225 52.6525 100.756Z" fill="black"/>
<path fill-rule="evenodd" clip-rule="evenodd" d="M22.1517 8.53818C23.0002 8.58884 23.647 9.31774 23.5963 10.1662C23.4088 13.3072 23.2463 18.5163 23.3709 23.8944C23.4963 29.3042 23.9104 34.7568 24.834 38.4512C27.2671 48.1834 28.8401 56.7658 29.981 63.3257C31.1168 69.8567 38.7901 105.793 40.471 111.396C40.7152 112.21 40.2532 113.068 39.4391 113.312C38.6249 113.557 37.7669 113.095 37.5227 112.28C35.7878 106.497 28.0898 70.4161 26.9484 63.8531C25.812 57.3189 24.2539 48.8221 21.8478 39.1978C20.8358 35.1497 20.4197 29.4059 20.2936 23.9657C20.1668 18.4937 20.3316 13.1991 20.5236 9.98279C20.5743 9.1343 21.3032 8.48753 22.1517 8.53818Z" fill="black"/>
<path fill-rule="evenodd" clip-rule="evenodd" d="M16.2877 14.2287C17.137 14.263 17.7977 14.9793 17.7634 15.8286C17.6697 18.1457 17.6062 21.9738 17.7213 25.8941C17.8372 29.8454 18.1322 33.7709 18.722 36.3447C19.7117 40.6634 20.9431 47.8391 21.9958 53.973C22.6095 57.5492 23.1625 60.7713 23.5713 62.8665C24.1276 65.7178 26.7097 76.019 29.5033 86.0545C30.8974 91.0627 32.3361 95.9754 33.5916 99.8322C34.2199 101.762 34.7963 103.409 35.2933 104.664C35.5421 105.292 35.7642 105.805 35.9565 106.197C36.1606 106.614 36.2913 106.811 36.3413 106.872C36.8827 107.527 36.7903 108.497 36.135 109.038C35.4796 109.58 34.5096 109.487 33.9682 108.832C33.6802 108.483 33.4217 108.019 33.1926 107.552C32.9518 107.061 32.6968 106.467 32.4315 105.798C31.9006 104.457 31.3016 102.742 30.6646 100.785C29.3893 96.8671 27.937 91.9059 26.5379 86.88C23.7452 76.8475 21.1324 66.4401 20.5501 63.456C20.1125 61.213 19.5441 57.8966 18.9221 54.2674C17.8853 48.218 16.6995 41.2993 15.7217 37.0323C15.059 34.1408 14.7609 29.9537 14.6445 25.9845C14.527 21.9843 14.5916 18.0841 14.6877 15.7044C14.7221 14.8551 15.4384 14.1944 16.2877 14.2287Z" fill="black"/>
<path fill-rule="evenodd" clip-rule="evenodd" d="M25.5643 6.86504C26.3934 6.67781 27.2173 7.19818 27.4046 8.02731C28.3949 12.413 30.4312 22.6842 30.4312 28.0074C30.4312 31.0639 31.4721 38.497 32.6023 45.9958C32.8589 47.6981 33.1196 49.4014 33.3717 51.0479C34.2113 56.5322 34.9544 61.3856 35.123 63.4647C35.4608 67.6314 38.4803 91.688 39.9547 103.246C40.0623 104.089 39.466 104.86 38.6228 104.967C37.7796 105.075 37.0089 104.478 36.9014 103.635C35.4344 92.1362 32.4002 67.9724 32.0549 63.7134C31.896 61.7542 31.1818 57.0874 30.3491 51.6465C30.0925 49.9705 29.8248 48.221 29.5586 46.4546C28.4471 39.0803 27.3531 31.3556 27.3531 28.0074C27.3531 23.0831 25.4043 13.1439 24.402 8.7053C24.2148 7.87617 24.7352 7.05226 25.5643 6.86504Z" fill="black"/>
<path fill-rule="evenodd" clip-rule="evenodd" d="M33.8213 6.53098C34.5988 6.18744 35.5076 6.53922 35.8511 7.31671C37.6548 11.3986 41.6595 21.2188 43.0621 27.5306C44.7954 35.3302 46.6533 51.0822 47.0828 62.2484C47.2534 66.6851 47.043 73.2426 46.8251 80.0343C46.767 81.8448 46.7084 83.6719 46.6563 85.48C46.4054 94.1899 46.3115 102.366 47.0602 106.587C47.2087 107.424 46.6506 108.223 45.8137 108.371C44.9768 108.52 44.1779 107.962 44.0295 107.125C43.2127 102.521 43.3322 93.974 43.5794 85.3913C43.6327 83.5412 43.6922 81.6849 43.7508 79.8559C43.9679 73.082 44.173 66.6833 44.0069 62.3667C43.5824 51.3299 41.7399 35.7701 40.0573 28.1984C38.7272 22.2131 34.8376 12.639 33.0356 8.56077C32.6921 7.78329 33.0439 6.87452 33.8213 6.53098Z" fill="black"/>
<path fill-rule="evenodd" clip-rule="evenodd" d="M30.3498 6.06806C31.1468 5.77261 32.0324 6.17921 32.3278 6.97622C34.3697 12.4847 38.8146 25.7288 40.0927 34.327C41.6636 44.8947 42.8228 60.261 42.2394 67.5535C42.022 70.2713 42.32 78.2315 42.8007 87.2389C43.2781 96.1819 43.925 105.993 44.3753 112.296C44.4359 113.144 43.7976 113.881 42.9498 113.941C42.102 114.002 41.3656 113.364 41.305 112.516C40.8538 106.2 40.2056 96.3694 39.727 87.4029C39.2518 78.5009 38.9331 70.2832 39.1711 67.308C39.7263 60.3678 38.6083 45.2762 37.048 34.7795C35.8212 26.5262 31.4797 13.5442 29.4416 8.0461C29.1462 7.2491 29.5527 6.3635 30.3498 6.06806Z" fill="black"/>
<path fill-rule="evenodd" clip-rule="evenodd" d="M37.5757 7.99744C38.3297 7.6051 39.259 7.89831 39.6514 8.65234C42.7141 14.5386 49.2835 29.3876 50.9131 41.6098C52.9229 56.6834 52.6372 67.7599 51.7739 76.9692C51.0916 84.2471 49.7828 99.7241 49.2134 106.557C49.1428 107.404 48.3989 108.034 47.5518 107.963C46.7048 107.893 46.0753 107.149 46.1459 106.302C46.7151 99.4716 48.0251 83.9784 48.7092 76.6819C49.5537 67.6734 49.8373 56.8317 47.862 42.0166C46.3035 30.328 39.9306 15.8577 36.9208 10.0731C36.5284 9.31911 36.8216 8.38979 37.5757 7.99744Z" fill="black"/>
<path d="M23.0833 119.528C22.1534 113.903 26.4927 108.788 32.194 108.788H62.0796C67.781 108.788 72.1202 113.903 71.1903 119.528L66.9591 145.123C66.2221 149.581 62.3671 152.851 57.8484 152.851H36.4252C31.9065 152.851 28.0515 149.581 27.3145 145.123L23.0833 119.528Z" fill="white"/>
<path fill-rule="evenodd" clip-rule="evenodd" d="M32.194 105.71H62.0796C69.6814 105.71 75.4671 112.53 74.2272 120.03L69.9961 145.625C69.0134 151.569 63.8734 155.929 57.8484 155.929H36.4252C30.4003 155.929 25.2603 151.569 24.2776 145.625L20.0464 120.03C18.8066 112.53 24.5922 105.71 32.194 105.71ZM32.194 108.788C26.4927 108.788 22.1534 113.903 23.0833 119.528L27.3145 145.123C28.0515 149.581 31.9065 152.851 36.4252 152.851H57.8484C62.3671 152.851 66.2221 149.581 66.9591 145.123L71.1903 119.528C72.1202 113.903 67.781 108.788 62.0796 108.788H32.194Z" fill="black"/>
<path d="M72.9663 108.788H21.3081L23.4043 121.468H70.87L72.9663 108.788Z" fill="black"/>
<path fill-rule="evenodd" clip-rule="evenodd" d="M22.6212 127.34C22.6212 126.49 23.3103 125.801 24.1603 125.801H44.494C45.344 125.801 46.0331 126.49 46.0331 127.34C46.0331 128.19 45.344 128.879 44.494 128.879H24.1603C23.3103 128.879 22.6212 128.19 22.6212 127.34Z" fill="black"/>
<path fill-rule="evenodd" clip-rule="evenodd" d="M31.0815 147.229C31.0815 146.379 31.7706 145.69 32.6206 145.69H67.4996C68.3496 145.69 69.0387 146.379 69.0387 147.229C69.0387 148.079 68.3496 148.768 67.4996 148.768H32.6206C31.7706 148.768 31.0815 148.079 31.0815 147.229Z" fill="black"/>
<path d="M12.0817 107.591C12.0817 104.317 14.7357 101.663 18.0096 101.663H76.2654C79.5393 101.663 82.1933 104.317 82.1933 107.591C82.1933 110.865 79.5393 113.519 76.2654 113.519H18.0096C14.7357 113.519 12.0817 110.865 12.0817 107.591Z" fill="white"/>
<path fill-rule="evenodd" clip-rule="evenodd" d="M18.0096 98.5852H76.2654C81.2393 98.5852 85.2715 102.617 85.2715 107.591C85.2715 112.565 81.2393 116.597 76.2654 116.597H18.0096C13.0357 116.597 9.00354 112.565 9.00354 107.591C9.00354 102.617 13.0357 98.5852 18.0096 98.5852ZM18.0096 101.663C14.7357 101.663 12.0817 104.317 12.0817 107.591C12.0817 110.865 14.7357 113.519 18.0096 113.519H76.2654C79.5393 113.519 82.1933 110.865 82.1933 107.591C82.1933 104.317 79.5393 101.663 76.2654 101.663H18.0096Z" fill="black"/>
</svg>
