<svg width="197" height="197" viewBox="0 0 197 197" fill="none" xmlns="http://www.w3.org/2000/svg">
<g opacity="0.52">
<rect x="42.0078" y="132.484" width="10.2501" height="19.1516" rx="5.12507" fill="black"/>
<rect x="143.699" y="132.484" width="10.2502" height="19.1516" rx="5.12508" fill="black"/>
<rect x="19.208" y="44.841" width="158.584" height="99.1066" rx="9" stroke="black" stroke-width="2" stroke-linecap="round" stroke-linejoin="round"/>
<rect x="24.4756" y="50.177" width="147.674" height="89.3006" rx="6" stroke="black" stroke-width="2" stroke-linecap="round" stroke-linejoin="round"/>
<ellipse cx="60.5345" cy="101.948" rx="9.17118" ry="9.17118" fill="white" stroke="black" stroke-width="2"/>
<path d="M60.5342 92.3719V50.4272" stroke="black" stroke-width="2" stroke-linecap="round" stroke-linejoin="round"/>
<ellipse cx="80.4944" cy="101.948" rx="9.17118" ry="9.17118" fill="white" stroke="black" stroke-width="2"/>
<path d="M80.4941 92.3719V50.4272" stroke="black" stroke-width="2" stroke-linecap="round" stroke-linejoin="round"/>
<circle cx="100.456" cy="101.948" r="9.17118" fill="white" stroke="black" stroke-width="2"/>
<path d="M100.456 92.3719V50.4272" stroke="black" stroke-width="2" stroke-linecap="round" stroke-linejoin="round"/>
<circle cx="145.471" cy="95.8679" r="10.7144" transform="rotate(-30 145.471 95.8679)" fill="black"/>
<path d="M141.321 86.502L120.349 50.1769" stroke="black" stroke-width="2" stroke-linecap="round" stroke-linejoin="round"/>
</g>
</svg>
