<svg width="27" height="25" viewBox="0 0 27 25" fill="none" xmlns="http://www.w3.org/2000/svg">
<path d="M2.12866 9.99421C2.12866 8.35245 3.45957 7.02155 5.10133 7.02155H23.5289C25.1707 7.02155 26.5016 8.35245 26.5016 9.99421V21.1512C26.5016 22.7929 25.1707 24.1238 23.5289 24.1238H5.10133C3.45957 24.1238 2.12866 22.7929 2.12866 21.1512V9.99421Z" fill="black"/>
<path d="M0.993896 7.86862C0.993896 6.77411 1.88117 5.88684 2.97567 5.88684H23.385C24.4795 5.88684 25.3668 6.77411 25.3668 7.86862V21.0074C25.3668 22.1019 24.4795 22.9891 23.385 22.9891H2.97567C1.88117 22.9891 0.993896 22.1019 0.993896 21.0074V7.86862Z" fill="white"/>
<path fill-rule="evenodd" clip-rule="evenodd" d="M2.9757 5.39139H23.3851C24.7532 5.39139 25.8623 6.50048 25.8623 7.86861V21.0074C25.8623 22.3755 24.7532 23.4846 23.3851 23.4846H2.97569C1.60756 23.4846 0.498474 22.3755 0.498474 21.0074V7.86861C0.498474 6.50048 1.60756 5.39139 2.9757 5.39139ZM2.9757 5.88683C1.88119 5.88683 0.993918 6.7741 0.993918 7.86861V21.0074C0.993918 22.1019 1.88119 22.9891 2.97569 22.9891H23.3851C24.4796 22.9891 25.3668 22.1019 25.3668 21.0074V7.86861C25.3668 6.7741 24.4796 5.88683 23.3851 5.88683H2.9757Z" fill="black"/>
<path d="M10.444 7.30524C10.444 6.86134 10.8039 6.50148 11.2478 6.50148H15.1129C15.5569 6.50148 15.9167 6.86134 15.9167 7.30524C15.9167 7.74915 15.5569 8.109 15.1129 8.109H11.2478C10.8039 8.109 10.444 7.74915 10.444 7.30524Z" fill="black"/>
<path fill-rule="evenodd" clip-rule="evenodd" d="M4.67981 10.3085H10.3811C11.2019 10.3085 11.8674 10.974 11.8674 11.7949V19.3809C11.8674 20.2017 11.2019 20.8672 10.3811 20.8672H4.67981C3.85893 20.8672 3.19348 20.2017 3.19348 19.3809V11.7949C3.19348 10.974 3.85893 10.3085 4.67981 10.3085ZM4.67981 10.804C4.13256 10.804 3.68893 11.2476 3.68893 11.7949V19.3809C3.68893 19.9281 4.13256 20.3718 4.67981 20.3718H10.3811C10.9283 20.3718 11.3719 19.9281 11.3719 19.3809V11.7949C11.3719 11.2476 10.9283 10.804 10.3811 10.804H4.67981Z" fill="black"/>
<path fill-rule="evenodd" clip-rule="evenodd" d="M5.72719 17.114C5.8622 17.4286 6.14904 17.6602 6.52927 17.8186C6.94021 17.9899 7.42952 18.0613 7.85484 18.0613C8.28015 18.0613 8.76947 17.9899 9.18041 17.8186C9.56064 17.6602 9.84747 17.4286 9.98248 17.114C9.84404 16.8114 9.50613 16.575 9.07458 16.409C8.61749 16.2332 8.12421 16.1637 7.85484 16.1637C7.58546 16.1637 7.09219 16.2332 6.63509 16.409C6.20354 16.575 5.86563 16.8114 5.72719 17.114ZM6.45724 15.9466C6.9723 15.7485 7.52596 15.6683 7.85484 15.6683C8.18371 15.6683 8.73738 15.7485 9.25244 15.9466C9.75715 16.1407 10.2969 16.4765 10.4829 17.0342C10.4998 17.085 10.4998 17.14 10.4829 17.1909C10.3023 17.7326 9.85666 18.0736 9.37096 18.276C8.88452 18.4786 8.3269 18.5568 7.85484 18.5568C7.38278 18.5568 6.82515 18.4786 6.33871 18.276C5.85302 18.0736 5.4074 17.7326 5.22682 17.1909C5.20987 17.14 5.20987 17.085 5.22682 17.0342C5.41273 16.4765 5.95253 16.1407 6.45724 15.9466Z" fill="black"/>
<path fill-rule="evenodd" clip-rule="evenodd" d="M6.92788 12.5643C6.82746 12.4114 6.65036 12.3258 6.46716 12.3431C6.27721 12.3611 6.11446 12.4865 6.04871 12.6656C5.88842 13.1023 5.92735 13.5152 6.18842 13.8281C6.2495 13.9013 6.31771 13.9626 6.38927 14.014C6.35837 14.1322 6.3419 14.2562 6.3419 14.3839C6.3419 15.1903 6.99568 15.8441 7.80216 15.8441C8.59897 15.8441 9.24672 15.2059 9.26213 14.4128C9.26968 14.3366 9.28032 14.1831 9.26319 14.0523C9.19843 13.4776 8.92113 13.0776 8.50156 12.8583C8.12099 12.6593 7.68309 12.6416 7.33737 12.6608C7.16315 12.6705 7.053 12.6356 6.99225 12.6059C6.9514 12.5859 6.93236 12.5684 6.92788 12.5643ZM8.77144 14.1129C8.67688 13.2501 8.00313 13.12 7.36485 13.1555C7.20201 13.1646 7.06369 13.1474 6.94852 13.116C6.70253 13.0489 6.56211 12.9169 6.51381 12.8364C6.40276 13.1389 6.44433 13.3508 6.55718 13.4962C6.57168 13.5148 6.58736 13.5324 6.60404 13.5489C6.72594 13.6697 6.90149 13.7346 7.06336 13.7633C6.95488 13.8923 6.87957 14.0502 6.85058 14.2237C6.84188 14.2758 6.83735 14.3293 6.83735 14.3839C6.83735 14.9167 7.26931 15.3487 7.80216 15.3487C8.33501 15.3487 8.76697 14.9167 8.76697 14.3839C8.77343 14.3285 8.78337 14.1968 8.77144 14.1129Z" fill="black"/>
<path fill-rule="evenodd" clip-rule="evenodd" d="M8.07452 16.9734C8.07452 16.8366 8.18543 16.7257 8.32225 16.7257H9.03145C9.16826 16.7257 9.27917 16.8366 9.27917 16.9734C9.27917 17.1102 9.16826 17.2211 9.03145 17.2211H8.32225C8.18543 17.2211 8.07452 17.1102 8.07452 16.9734Z" fill="black"/>
<path fill-rule="evenodd" clip-rule="evenodd" d="M13.311 17.9643C13.311 17.8275 13.4219 17.7166 13.5587 17.7166H18.6173C18.7541 17.7166 18.865 17.8275 18.865 17.9643C18.865 18.1011 18.7541 18.212 18.6173 18.212H13.5587C13.4219 18.212 13.311 18.1011 13.311 17.9643Z" fill="black"/>
<path fill-rule="evenodd" clip-rule="evenodd" d="M13.311 16.454C13.311 16.3171 13.4219 16.2062 13.5587 16.2062H22.8256C22.9624 16.2062 23.0734 16.3171 23.0734 16.454C23.0734 16.5908 22.9624 16.7017 22.8256 16.7017H13.5587C13.4219 16.7017 13.311 16.5908 13.311 16.454Z" fill="black"/>
<path fill-rule="evenodd" clip-rule="evenodd" d="M13.311 14.941C13.311 14.8042 13.4219 14.6933 13.5587 14.6933H22.8256C22.9624 14.6933 23.0734 14.8042 23.0734 14.941C23.0734 15.0778 22.9624 15.1887 22.8256 15.1887H13.5587C13.4219 15.1887 13.311 15.0778 13.311 14.941Z" fill="black"/>
<path fill-rule="evenodd" clip-rule="evenodd" d="M13.3109 13.428C13.3109 13.2912 13.4218 13.1803 13.5586 13.1803H22.8255C22.9624 13.1803 23.0733 13.2912 23.0733 13.428C23.0733 13.5648 22.9624 13.6757 22.8255 13.6757H13.5586C13.4218 13.6757 13.3109 13.5648 13.3109 13.428Z" fill="black"/>
<path d="M13.3577 11.1467C13.3577 10.853 13.5958 10.6148 13.8896 10.6148H22.5891C22.8829 10.6148 23.121 10.853 23.121 11.1467C23.121 11.4405 22.8829 11.6786 22.5891 11.6786H13.8896C13.5958 11.6786 13.3577 11.4405 13.3577 11.1467Z" fill="black"/>
<path d="M11.8447 1.86704C11.8447 1.59342 12.0665 1.3716 12.3402 1.3716H14.0206C14.2942 1.3716 14.5161 1.59342 14.5161 1.86704V7.23433H11.8447V1.86704Z" fill="white"/>
<path fill-rule="evenodd" clip-rule="evenodd" d="M15.0115 7.72977H11.3492V1.86703C11.3492 1.31978 11.7929 0.876144 12.3401 0.876144H14.0206C14.5678 0.876144 15.0115 1.31978 15.0115 1.86703V7.72977ZM12.3401 1.37159C12.0665 1.37159 11.8447 1.59341 11.8447 1.86703V7.23433H14.516V1.86703C14.516 1.59341 14.2942 1.37159 14.0206 1.37159H12.3401Z" fill="black"/>
<path d="M13.8659 2.69545C13.8659 3.07407 13.559 3.38101 13.1804 3.38101C12.8017 3.38101 12.4948 3.07407 12.4948 2.69545C12.4948 2.31682 12.8017 2.00989 13.1804 2.00989C13.559 2.00989 13.8659 2.31682 13.8659 2.69545Z" fill="black"/>
</svg>
