<svg width="29" height="16" viewBox="0 0 29 16" fill="none" xmlns="http://www.w3.org/2000/svg">
<path fill-rule="evenodd" clip-rule="evenodd" d="M7.69253 9.18445L13.7269 11.4502C14.1968 11.6267 14.715 11.6257 15.1843 11.4474L21.0784 9.20855L21.0784 13.5138C21.0784 13.5179 21.0785 13.522 21.0785 13.526C21.0785 14.8524 18.0819 15.9277 14.3855 15.9277C10.6891 15.9277 7.69253 14.8524 7.69253 13.526C7.69253 13.5247 7.69252 13.5233 7.69252 13.522C7.6925 13.5193 7.69249 13.5166 7.69253 13.5138V9.18445Z" fill="black"/>
<path d="M26.5189 12.4201C26.7203 12.0504 26.9481 11.5702 27.1408 11.1432C27.2909 10.8108 27.718 10.7376 27.9018 11.0526C28.2236 11.6043 28.4358 12.2625 28.5414 12.7011C28.5749 12.8404 28.5454 12.9915 28.4383 13.0867C27.9841 13.4905 27.283 13.3823 26.7384 13.1758C26.4463 13.065 26.3695 12.6944 26.5189 12.4201Z" fill="white"/>
<path fill-rule="evenodd" clip-rule="evenodd" d="M27.5439 11.1105C27.4864 11.1184 27.4157 11.1609 27.3758 11.2493C27.1822 11.6782 26.9513 12.1653 26.7453 12.5434C26.7018 12.6234 26.6923 12.7171 26.7125 12.7937C26.7317 12.8668 26.7734 12.9133 26.8298 12.9347C27.0847 13.0314 27.3647 13.1002 27.6243 13.1023C27.8822 13.1043 28.1016 13.041 28.267 12.894C28.2855 12.8776 28.3081 12.8335 28.2907 12.7614C28.1885 12.3367 27.9838 11.7048 27.6791 11.1825C27.6422 11.1192 27.5936 11.1036 27.5439 11.1105ZM27.4734 10.5997C27.7207 10.5656 27.9776 10.6709 28.1245 10.9227L27.9018 11.0526M27.4734 10.5997C27.2339 10.6328 27.016 10.7931 26.9058 11.0372L27.4734 10.5997ZM28.1245 10.9227C28.4635 11.5038 28.6831 12.1883 28.792 12.6407C28.8418 12.8473 28.8053 13.1053 28.6096 13.2793C28.3208 13.5361 27.9626 13.6206 27.6202 13.6179C27.2795 13.6152 26.9367 13.5267 26.647 13.4169C26.1632 13.2334 26.0938 12.6617 26.2925 12.2968C26.4892 11.9356 26.714 11.4622 26.9058 11.0372" fill="black"/>
<path fill-rule="evenodd" clip-rule="evenodd" d="M27.0828 10.4617C27.193 10.3715 27.3554 10.3878 27.4456 10.498C27.534 10.606 27.5794 10.7649 27.6079 10.897C27.6393 11.0428 27.6609 11.2132 27.6758 11.3845C27.7057 11.728 27.7109 12.0998 27.7065 12.3384C27.7039 12.4808 27.5864 12.5941 27.4441 12.5915C27.3017 12.5889 27.1884 12.4714 27.191 12.329C27.1951 12.1031 27.1901 11.7501 27.1622 11.4293C27.1481 11.2684 27.1289 11.1218 27.1038 11.0056C27.0913 10.9476 27.0783 10.9017 27.0657 10.8677C27.0538 10.8356 27.0459 10.8239 27.046 10.8239C27.046 10.8238 27.0462 10.8241 27.0465 10.8245C26.9563 10.7143 26.9726 10.5519 27.0828 10.4617Z" fill="black"/>
<path fill-rule="evenodd" clip-rule="evenodd" d="M27.3981 5.48506C27.6117 5.48506 27.7848 5.6582 27.7848 5.87178V10.1544C27.7848 10.368 27.6117 10.5411 27.3981 10.5411C27.1845 10.5411 27.0114 10.368 27.0114 10.1544V5.87178C27.0114 5.6582 27.1845 5.48506 27.3981 5.48506Z" fill="black"/>
<path d="M28.4624 10.3064C28.4624 10.8943 27.9859 11.3708 27.3981 11.3708C26.8103 11.3708 26.3338 10.8943 26.3338 10.3064C26.3338 9.71864 26.8103 9.24213 27.3981 9.24213C27.9859 9.24213 28.4624 9.71864 28.4624 10.3064Z" fill="black"/>
<path d="M13.6515 0.533502L1.15543 5.5128C0.924482 5.60482 0.927762 5.93287 1.16051 6.02026L13.6924 10.7257C14.1883 10.9119 14.7351 10.9109 15.2304 10.7228L27.6114 6.0199C27.8428 5.93199 27.8461 5.60577 27.6165 5.51321L15.271 0.536734C14.7517 0.3274 14.1717 0.326243 13.6515 0.533502Z" fill="black"/>
<path fill-rule="evenodd" clip-rule="evenodd" d="M23.9282 6.31555C23.977 6.44931 23.9082 6.59731 23.7744 6.64613L14.9558 9.86443C14.822 9.91324 14.674 9.84438 14.6252 9.71062C14.5764 9.57687 14.6452 9.42886 14.779 9.38005L23.5976 6.16175C23.7314 6.11294 23.8794 6.1818 23.9282 6.31555Z" fill="white"/>
<path fill-rule="evenodd" clip-rule="evenodd" d="M3.18753 5.71873C3.23657 5.58506 3.38469 5.51644 3.51836 5.56548L6.46561 6.64661C6.59928 6.69565 6.6679 6.84376 6.61886 6.97744C6.56982 7.11111 6.42171 7.17973 6.28803 7.13069L3.34079 6.04956C3.20711 6.00052 3.1385 5.85241 3.18753 5.71873Z" fill="white"/>
</svg>
