<svg width="149" height="129" viewBox="0 0 149 129" fill="none" xmlns="http://www.w3.org/2000/svg">
<path d="M65.369 41.9019C75.9264 41.9019 84.4848 50.4603 84.4848 61.0177V94.4557C84.4848 105.013 75.9264 113.572 65.369 113.572H44.8525L32.814 128.432C31.9802 129.461 30.3159 128.871 30.3159 127.547V113.572H30.2643C19.7069 113.572 11.1484 105.013 11.1484 94.4557V61.0177C11.1484 50.4603 19.7069 41.9019 30.2643 41.9019H65.369Z" fill="black"/>
<path d="M86.3105 9.70215C75.7532 9.70215 67.1947 18.2606 67.1947 28.818V80.5901C67.1947 91.1475 75.7532 99.7059 86.3106 99.7059H111.289L127.2 119.345C128.033 120.374 129.698 119.785 129.698 118.46V99.7059H129.749C140.306 99.7059 148.865 91.1475 148.865 80.5901V28.818C148.865 18.2606 140.306 9.70215 129.749 9.70215H86.3105Z" fill="black"/>
<path fill-rule="evenodd" clip-rule="evenodd" d="M56.6015 36.4126C67.4714 36.4126 76.2832 45.2244 76.2832 56.0943V88.4006C76.2832 99.2705 67.4714 108.082 56.6015 108.082H36.6506L22.1137 126.026V108.076C11.4818 107.803 2.94682 99.0984 2.94682 88.4006V56.0943C2.94682 45.2244 11.7586 36.4126 22.6285 36.4126H56.6015Z" fill="white"/>
<path fill-rule="evenodd" clip-rule="evenodd" d="M36.6506 108.082H56.6015C67.4714 108.082 76.2832 99.2704 76.2832 88.4005V56.0942C76.2832 45.2243 67.4714 36.4125 56.6015 36.4125H22.6285C11.7586 36.4125 2.94678 45.2243 2.94678 56.0942V88.4005C2.94678 99.0983 11.4817 107.803 22.1137 108.076V126.026L36.6506 108.082ZM19.302 110.649C8.45605 109.041 0.135117 99.693 0.135117 88.4005V56.0942C0.135117 43.6714 10.2057 33.6008 22.6285 33.6008H56.6015C69.0242 33.6008 79.0948 43.6714 79.0948 56.0942V88.4005C79.0948 100.823 69.0242 110.894 56.6015 110.894H37.9913L24.2984 127.796C23.5488 128.721 22.2974 129.074 21.1749 128.676C20.0523 128.279 19.302 127.217 19.302 126.026V110.649Z" fill="black"/>
<path fill-rule="evenodd" clip-rule="evenodd" d="M4.48096 56.6141C4.48096 46.5206 12.6633 38.3383 22.7568 38.3383H56.4726C66.566 38.3383 74.7484 46.5206 74.7484 56.6141V88.1368C74.7484 98.2302 66.566 106.413 56.4726 106.413H36.3295C35.5531 106.413 34.9237 105.783 34.9237 105.007C34.9237 104.23 35.5531 103.601 36.3295 103.601H56.4726C65.0132 103.601 71.9367 96.6774 71.9367 88.1368V56.6141C71.9367 48.0735 65.0132 41.1499 56.4726 41.1499H22.7568C14.2162 41.1499 7.29262 48.0735 7.29262 56.6141V88.1368C7.29262 96.6774 14.2162 103.601 22.7568 103.601H24.1326C24.9091 103.601 25.5385 104.23 25.5385 105.007C25.5385 105.783 24.9091 106.413 24.1326 106.413H22.7568C12.6633 106.413 4.48096 98.2303 4.48096 88.1368V56.6141Z" fill="black"/>
<path fill-rule="evenodd" clip-rule="evenodd" d="M14.3027 66.6347C14.3027 65.4701 15.2469 64.526 16.4115 64.526H33.7617C34.9264 64.526 35.8705 65.4701 35.8705 66.6347C35.8705 67.7993 34.9264 68.7435 33.7617 68.7435H16.4115C15.2469 68.7435 14.3027 67.7993 14.3027 66.6347Z" fill="black"/>
<path fill-rule="evenodd" clip-rule="evenodd" d="M14.3027 53.3005C14.3027 52.1359 15.2469 51.1918 16.4115 51.1918H57.2952C58.4598 51.1918 59.4039 52.1359 59.4039 53.3005C59.4039 54.4652 58.4598 55.4093 57.2952 55.4093H16.4115C15.2469 55.4093 14.3027 54.4652 14.3027 53.3005Z" fill="black"/>
<path fill-rule="evenodd" clip-rule="evenodd" d="M14.3027 79.1352C14.3027 77.9705 15.2469 77.0264 16.4115 77.0264H23.6297C24.7943 77.0264 25.7384 77.9705 25.7384 79.1352C25.7384 80.2998 24.7943 81.2439 23.6297 81.2439H16.4115C15.2469 81.2439 14.3027 80.2998 14.3027 79.1352Z" fill="black"/>
<path fill-rule="evenodd" clip-rule="evenodd" d="M75.9624 2.85681C65.0925 2.85681 56.2808 11.6686 56.2808 22.5385V73.1789C56.2808 84.0488 65.0925 92.8606 75.9624 92.8606H100.376L118.784 115.583V92.854C129.416 92.5808 137.951 83.8766 137.951 73.1789V22.5385C137.951 11.6686 129.139 2.85681 118.269 2.85681H75.9624Z" fill="white"/>
<path fill-rule="evenodd" clip-rule="evenodd" d="M100.376 92.8605H75.9623C65.0924 92.8605 56.2807 84.0487 56.2807 73.1788V22.5384C56.2807 11.6685 65.0924 2.85671 75.9623 2.85671H118.269C129.139 2.85671 137.951 11.6685 137.951 22.5384V73.1788C137.951 83.8764 129.416 92.5807 118.784 92.8539V115.583L100.376 92.8605ZM121.596 95.4277C132.442 93.8195 140.762 84.4712 140.762 73.1788V22.5384C140.762 10.1157 130.692 0.0450439 118.269 0.0450439H75.9623C63.5396 0.0450439 53.469 10.1157 53.469 22.5384V73.1788C53.469 85.6015 63.5396 95.6721 75.9623 95.6721H99.0353L116.599 117.353C117.349 118.278 118.6 118.631 119.723 118.233C120.846 117.836 121.596 116.774 121.596 115.583V95.4277Z" fill="black"/>
<path fill-rule="evenodd" clip-rule="evenodd" d="M58.0557 23.4572C58.0557 13.3638 66.238 5.1814 76.3315 5.1814H117.694C127.787 5.1814 135.969 13.3638 135.969 23.4572V71.8464C135.969 81.9398 127.787 90.1222 117.694 90.1222H117.198C116.421 90.1222 115.792 89.4928 115.792 88.7164C115.792 87.9399 116.421 87.3105 117.198 87.3105H117.694C126.234 87.3105 133.158 80.387 133.158 71.8464V23.4572C133.158 14.9166 126.234 7.99306 117.694 7.99306H76.3315C67.7909 7.99306 60.8673 14.9166 60.8673 23.4572V71.8464C60.8673 80.387 67.7909 87.3105 76.3315 87.3105H101.512C102.289 87.3105 102.918 87.9399 102.918 88.7164C102.918 89.4928 102.289 90.1222 101.512 90.1222H76.3315C66.238 90.1222 58.0557 81.9398 58.0557 71.8464V23.4572Z" fill="black"/>
<path fill-rule="evenodd" clip-rule="evenodd" d="M71.1091 51.9746C71.1091 50.4218 72.368 49.1629 73.9208 49.1629H120.33C121.883 49.1629 123.142 50.4218 123.142 51.9746C123.142 53.5274 121.883 54.7863 120.33 54.7863H73.9208C72.368 54.7863 71.1091 53.5274 71.1091 51.9746Z" fill="black"/>
<path fill-rule="evenodd" clip-rule="evenodd" d="M71.1091 37.3646C71.1091 35.8118 72.368 34.5529 73.9208 34.5529H120.33C121.883 34.5529 123.142 35.8118 123.142 37.3646C123.142 38.9174 121.883 40.1763 120.33 40.1763H73.9208C72.368 40.1763 71.1091 38.9174 71.1091 37.3646Z" fill="black"/>
<path fill-rule="evenodd" clip-rule="evenodd" d="M71.1089 23.3079C71.1089 21.755 72.3677 20.4962 73.9206 20.4962H120.33C121.883 20.4962 123.142 21.755 123.142 23.3079C123.142 24.8607 121.883 26.1195 120.33 26.1195H73.9206C72.3677 26.1195 71.1089 24.8607 71.1089 23.3079Z" fill="black"/>
<path fill-rule="evenodd" clip-rule="evenodd" d="M71.1091 65.6697C71.1091 64.1169 72.368 62.858 73.9208 62.858H99.1145C100.667 62.858 101.926 64.1169 101.926 65.6697C101.926 67.2225 100.667 68.4814 99.1145 68.4814H73.9208C72.368 68.4814 71.1091 67.2225 71.1091 65.6697Z" fill="black"/>
</svg>
