<svg viewBox="0 404.142 36 33.608" id="site_logo">
    <path
        d="M28.813 419.643c2.65 0 4.645-1.104 6.116-3.026l-1.966-1.5a5.188 5.188 0 01-4.15 2.052c-2.876 0-4.96-2.343-4.96-5.218s2.05-5.35 5.042-5.35c1.33 0 2.27.314 3.09.822v2.528h2.474v-3.686l-.474-.373c-1.36-1.07-3.437-1.638-5.173-1.638-4.244 0-7.696 3.452-7.696 7.696 0 4.24 3.45 7.693 7.696 7.693zm5.133 15.18l-.088-3.543v-8.646h-5.16v2.475h2.554v5.866c0 2.527-1.93 4.316-3.877 4.316s-2.963-1.35-2.963-3.876v-8.782h-4.82v2.475h2.214v6.736c0 3.428 1.922 5.79 5.35 5.79 1.97 0 3.47-1.093 4.365-2.778h.04l.353 2.356h3.965v-2.386h-1.93v-.005zm-13.4-30.206h-4.3l-3.74 10.86h-.058l-3.72-10.86H4.146v2.476h2.577l4.435 12.378h2.356v-.003l4.625-12.374h2.405v-2.476zM.122 437.244H2.67v-2.547H.123v2.547zm9.84-11.74h-.028l-.16-2.87H5.226v2.256h2.42v9.934h-2.42v2.387h11.24v-2.34h-6.258v-5.995c.283-2.17 1.91-4.023 4.13-4.023h.04l-.045 2.218h2.474v-4.478h-1.956c-2.24-.006-3.902 1.206-4.89 2.912z"></path>
</svg>