<svg width="25" height="25" viewBox="0 0 25 25" fill="none" xmlns="http://www.w3.org/2000/svg">
<path d="M0 12.5C0 5.59644 5.59644 0 12.5 0C19.4036 0 25 5.59644 25 12.5C25 19.4036 19.4036 25 12.5 25C5.59644 25 0 19.4036 0 12.5Z" fill="#4392F1" fill-opacity="0.15"/>
<g opacity="0.34">
<path d="M16.25 14.3748C16.104 14.3751 15.9625 14.3242 15.85 14.231L12.5 11.431L9.14376 14.131C9.07983 14.183 9.00627 14.2217 8.92731 14.2451C8.84835 14.2685 8.76554 14.2761 8.68365 14.2674C8.60175 14.2587 8.52239 14.2338 8.45012 14.1944C8.37784 14.1549 8.31409 14.1015 8.26251 14.0373C8.21059 13.9734 8.17182 13.8998 8.14843 13.8208C8.12503 13.7419 8.11748 13.6591 8.12619 13.5772C8.1349 13.4953 8.15971 13.4159 8.19919 13.3437C8.23868 13.2714 8.29206 13.2076 8.35626 13.156L12.1063 10.1373C12.2181 10.0454 12.3584 9.99512 12.5031 9.99512C12.6479 9.99512 12.7882 10.0454 12.9 10.1373L16.65 13.2623C16.7133 13.3148 16.7656 13.3792 16.804 13.4519C16.8423 13.5246 16.8659 13.6042 16.8735 13.6861C16.881 13.7679 16.8723 13.8505 16.8479 13.929C16.8235 14.0075 16.7839 14.0804 16.7313 14.1435C16.6731 14.2152 16.5998 14.2732 16.5166 14.3131C16.4334 14.3531 16.3423 14.3742 16.25 14.3748Z" fill="black"/>
</g>
</svg>
