<svg width="25" height="25" viewBox="0 0 25 34" fill="none" xmlns="http://www.w3.org/2000/svg">
<path d="M0 21.5C0 14.5964 5.59644 9 12.5 9C19.4036 9 25 14.5964 25 21.5C25 28.4036 19.4036 34 12.5 34C5.59644 34 0 28.4036 0 21.5Z" fill="#4392F1" fill-opacity="0.15"/>
<path d="M7.91509 23.12C7.56309 23.12 7.25909 22.992 7.00309 22.736C6.76309 22.48 6.64309 22.168 6.64309 21.8C6.64309 21.432 6.76309 21.128 7.00309 20.888C7.25909 20.632 7.56309 20.504 7.91509 20.504C8.26709 20.504 8.57109 20.632 8.82709 20.888C9.08309 21.128 9.21109 21.432 9.21109 21.8C9.21109 22.168 9.08309 22.48 8.82709 22.736C8.57109 22.992 8.26709 23.12 7.91509 23.12ZM13.001 23.12C12.649 23.12 12.345 22.992 12.089 22.736C11.849 22.48 11.729 22.168 11.729 21.8C11.729 21.432 11.849 21.128 12.089 20.888C12.345 20.632 12.649 20.504 13.001 20.504C13.353 20.504 13.657 20.632 13.913 20.888C14.169 21.128 14.297 21.432 14.297 21.8C14.297 22.168 14.169 22.48 13.913 22.736C13.657 22.992 13.353 23.12 13.001 23.12ZM18.087 23.12C17.735 23.12 17.431 22.992 17.175 22.736C16.935 22.48 16.815 22.168 16.815 21.8C16.815 21.432 16.935 21.128 17.175 20.888C17.431 20.632 17.735 20.504 18.087 20.504C18.439 20.504 18.743 20.632 18.999 20.888C19.255 21.128 19.383 21.432 19.383 21.8C19.383 22.168 19.255 22.48 18.999 22.736C18.743 22.992 18.439 23.12 18.087 23.12Z" fill="black" fill-opacity="0.34"/>
</svg>
