<svg width="175" height="175" viewBox="0 0 175 175" fill="none" xmlns="http://www.w3.org/2000/svg">
<path d="M162.743 80.8736C162.604 79.8443 162.907 78.6719 162.917 77.4975C162.927 76.323 162.497 74.9979 162.212 73.8206C162.072 73.0852 163.103 72.6532 163.244 73.3886C164.108 75.4512 165.694 79.1351 164.064 81.0313C163.617 81.7617 162.884 81.609 162.743 80.8736Z" fill="black" fill-opacity="0.26"/>
<path d="M157.9 98.7499C158.205 97.2841 159.096 96.1165 159.841 94.8008C160.588 93.1915 161.335 91.5822 161.495 89.9681C161.646 89.529 162.233 89.5337 162.376 89.9752C162.498 93.06 161.729 97.3125 159.507 99.791C158.769 100.225 157.747 99.4831 157.9 98.7499Z" fill="black" fill-opacity="0.26"/>
<path d="M142.75 101.712C144.219 101.724 145.685 102.029 147.156 101.747C148.627 101.466 149.66 100.74 150.842 99.8678C151.58 99.4334 151.867 100.317 151.568 100.902C149.343 103.674 145.809 104.82 142.588 103.619C141.712 103.025 141.724 101.557 142.75 101.712Z" fill="black" fill-opacity="0.26"/>
<path d="M131.645 94.8673C131.647 94.5738 131.944 94.2825 132.385 94.139C133.56 94.1487 134.14 95.0342 134.723 95.6266C135.742 96.6625 136.764 97.4049 138.082 97.8561C138.813 98.3028 138.364 99.3269 137.631 99.1741C136.313 98.723 135.143 98.1261 134.121 97.3837C132.949 97.0805 131.488 96.1879 131.645 94.8673Z" fill="black" fill-opacity="0.26"/>
<path d="M130.821 87.8122C131.272 86.4942 131.284 85.0258 131.441 83.7054C131.453 82.2367 131.317 80.914 131.622 79.4482C131.923 78.5693 133.098 78.5792 133.384 79.4624C133.666 80.9332 133.506 82.5472 133.347 84.1615C133.189 85.4817 132.884 86.9477 132.432 88.2654C131.984 89.2895 130.518 88.9845 130.821 87.8122Z" fill="black" fill-opacity="0.26"/>
<path d="M136.373 73.0251C137.409 72.0055 138.443 71.2794 139.768 70.8495C140.945 70.5653 142.855 70.4338 143.73 71.3224C144.167 71.7665 144.012 72.7932 143.276 72.9339C142.247 73.0725 141.22 72.9171 140.339 72.91C139.31 73.0486 138.279 73.481 137.687 74.0637C136.798 74.9376 135.631 74.0466 136.373 73.0251Z" fill="black" fill-opacity="0.26"/>
<path d="M146.861 83.6827C146.579 82.212 145.413 81.0278 144.243 80.431C143.658 80.1326 144.107 79.108 144.692 79.4064C146.301 80.1536 147.617 80.8985 148.486 82.3739C149.21 83.7012 149.926 85.9099 149.182 87.2258C148.883 87.8106 148.002 87.8035 147.713 87.2137C146.987 86.1802 147.145 84.8596 146.861 83.6827Z" fill="black" fill-opacity="0.26"/>
<path d="M142.036 99.2097C142.337 98.3313 143.223 97.751 143.672 96.7264C144.269 95.5567 144.426 94.2361 144.584 92.9159C144.591 92.0349 145.765 92.0441 145.758 92.9252C145.887 95.1289 145.706 99.3864 143.348 100.542C142.464 100.828 141.59 99.9404 142.036 99.2097Z" fill="black" fill-opacity="0.26"/>
<path d="M125.063 109.793C128.153 109.083 131.243 108.374 134.043 107.075C134.927 106.789 135.652 107.822 134.767 108.403C131.816 110.141 128.714 112.319 125.049 111.555C124.168 111.548 124.18 110.08 125.063 109.793Z" fill="black" fill-opacity="0.26"/>
<path d="M110.116 105.855C109.682 105.117 110.422 104.389 111.009 104.393C112.332 104.257 113.939 105.298 115.405 105.603C116.871 105.909 118.485 106.069 120.099 106.229C120.98 106.236 120.968 107.704 120.087 107.697C118.177 107.829 116.415 107.815 114.653 107.8C113.039 107.641 110.986 107.33 110.116 105.855Z" fill="black" fill-opacity="0.26"/>
<path d="M96.6948 94.8798C96.5539 94.1444 97.5874 93.4183 98.022 94.156C100.205 96.6703 101.501 99.7646 103.686 101.985C104.123 102.429 103.531 103.011 103.094 102.567C100.616 100.345 97.4018 98.2626 96.6948 94.8798Z" fill="black" fill-opacity="0.26"/>
<path d="M93.8192 87.2203C93.3893 85.8952 92.9594 84.5701 92.9713 83.1017C92.8377 81.4855 92.4125 79.573 93.1574 78.2574C93.4558 77.6724 94.4849 77.5338 94.6258 78.2692C95.2037 79.4486 94.8982 80.9147 94.8885 82.0892C94.8769 83.5578 94.8624 85.3196 95.1443 86.7904C95.2831 87.8197 94.106 88.1039 93.8192 87.2203Z" fill="black" fill-opacity="0.26"/>
<path d="M95.2887 68.8758C95.3029 67.1137 95.9021 65.6501 96.6493 64.0407C97.6902 62.4338 99.1751 60.3899 100.796 59.6687C101.828 59.2364 102.702 60.1246 102.253 61.1489C100.906 64.2219 97.2248 65.5139 96.7547 69.1813C96.6022 69.9141 95.4296 69.6112 95.2887 68.8758Z" fill="black" fill-opacity="0.26"/>
<path d="M107.525 62.9533C111.345 62.6904 118.831 63.1912 119.23 68.3344C119.223 69.2154 118.191 69.6474 117.606 69.349C116.145 68.4561 115.275 66.9804 113.96 66.2358C112.059 65.1923 109.712 64.8799 107.659 64.5697C106.487 64.2668 106.644 62.9467 107.525 62.9533Z" fill="black" fill-opacity="0.26"/>
<path d="M118.679 81.987C118.839 80.3727 119.145 78.9069 119.305 77.2929C119.319 75.5308 118.892 73.9122 118.464 72.2932C118.175 71.7035 119.207 71.2715 119.496 71.8612C121.234 74.812 123.249 79.8213 120.143 82.5862C119.699 83.0229 118.527 82.72 118.679 81.987Z" fill="black" fill-opacity="0.26"/>
<path d="M112.699 95.1555C114.038 92.9635 116.254 91.3658 116.569 88.7248C116.573 88.1377 117.455 88.1448 117.45 88.7324C117.572 91.8167 115.934 94.5941 113.425 96.1893C113.129 96.4806 112.401 95.7405 112.699 95.1555Z" fill="black" fill-opacity="0.26"/>
<path d="M101.71 110.339C102.469 107.262 105.869 104.499 108.38 102.61C108.972 102.027 109.846 102.915 109.4 103.646C108.361 104.959 107.029 106.27 106.137 107.732C105.246 108.899 104.647 110.363 103.61 111.382C102.577 112.108 101.409 111.217 101.71 110.339Z" fill="black" fill-opacity="0.26"/>
<path d="M84.6269 116.369C86.2481 115.648 87.7165 115.66 89.4807 115.38C91.3913 115.249 93.0096 114.822 94.7764 114.248C95.66 113.962 96.2353 115.435 95.4976 115.869C94.0218 116.738 92.5513 117.02 90.9328 117.448C89.0201 117.873 87.1074 118.299 85.0521 118.282C84.1713 118.275 83.5955 116.801 84.6269 116.369Z" fill="black" fill-opacity="0.26"/>
<path d="M67.6314 111.533C67.1965 110.795 68.0847 109.921 68.8156 110.368C70.8614 111.559 72.7625 112.603 75.1093 112.915C75.8423 113.068 75.8353 113.949 75.0996 114.09C72.3087 114.214 69.5204 114.045 67.6314 111.533Z" fill="black" fill-opacity="0.26"/>
<path d="M55.5444 98.9535C55.4058 97.9244 56.7309 97.4945 57.1655 98.2323C58.4672 100.739 60.3581 102.957 62.1037 105.027C62.6863 105.619 61.6501 106.639 61.0675 106.047C58.732 104.266 56.1057 102.189 55.5444 98.9535Z" fill="black" fill-opacity="0.26"/>
<path d="M48.0432 82.1527C47.9047 81.1236 49.3731 81.1354 49.6597 82.0188C50.8107 84.9651 51.3721 88.2003 52.3751 91.2922C52.664 91.8819 51.6326 92.3142 51.3437 91.7244C49.6052 88.7735 48.1631 85.5309 48.0432 82.1527Z" fill="black" fill-opacity="0.26"/>
<path d="M51.3591 71.6058C51.3804 68.9627 52.003 64.5624 54.8036 63.2633C55.5414 62.8287 56.4153 63.7169 55.9689 64.4475C55.3721 65.6175 54.3383 66.3434 53.7414 67.5134C53.1446 68.6834 52.8391 70.1494 52.8273 71.6178C52.6745 72.3509 51.4996 72.3412 51.3591 71.6058Z" fill="black" fill-opacity="0.26"/>
<path d="M60.9919 60.6698C62.3241 59.3589 63.7996 58.4896 65.7074 58.6519C67.3214 58.8117 70.3991 59.5708 70.8243 61.4832C71.1109 62.3666 70.2251 62.9469 69.3441 62.9398C68.611 62.787 68.3197 62.491 67.8828 62.0469C67.4458 61.6029 66.7151 61.1564 65.9821 61.0037C64.6641 60.5525 62.7564 60.3903 61.5746 61.2619C61.131 61.6988 60.5481 61.1065 60.9919 60.6698Z" fill="black" fill-opacity="0.26"/>
<path d="M73.0345 78.8296C72.755 77.0651 73.2109 75.1598 73.0773 73.5431C72.9456 71.6332 72.3724 69.8664 71.7992 68.0996C71.5127 67.2162 72.8378 66.7863 73.2724 67.5241C75.0108 70.4751 76.7303 75.7755 74.9422 78.9918C74.4958 79.7224 73.1756 79.5647 73.0345 78.8296Z" fill="black" fill-opacity="0.26"/>
<path d="M67.5992 97.2886C68.2008 95.5313 69.2393 94.218 70.1345 92.463C71.4741 90.2708 72.0804 87.9261 72.2473 85.431C72.2565 84.2565 74.0189 84.2705 74.0094 85.4452C74.1219 89.7047 72.3149 95.2705 69.2064 98.3293C68.6141 98.9117 67.2984 98.1673 67.5992 97.2886Z" fill="black" fill-opacity="0.26"/>
<path d="M45.7026 99.3149C47.171 99.3267 48.3386 100.217 49.5086 100.814C51.1179 101.561 53.0209 102.311 54.7809 102.618C55.9554 102.628 55.9412 104.39 54.7665 104.381C53.0044 104.367 51.2449 104.058 49.633 103.605C48.021 103.152 45.9702 102.548 44.953 101.218C44.5182 100.48 44.8216 99.3078 45.7026 99.3149Z" fill="black" fill-opacity="0.26"/>
<path d="M31.3663 92.4446C34.8929 92.1793 38.8351 95.0012 41.0176 97.5152C41.7459 98.2553 40.7097 99.275 39.8334 98.6805C38.666 97.7898 37.2045 96.8971 35.8888 96.1523C34.2795 95.4051 32.3717 95.2429 30.9104 94.35C30.1821 93.6099 30.4853 92.4371 31.3663 92.4446Z" fill="black" fill-opacity="0.26"/>
<path d="M17.7256 90.4256C18.4681 89.4036 19.9365 89.4154 20.9658 89.2767C22.2885 89.1405 23.6065 89.5916 24.6309 90.0404C25.6552 90.4892 25.2014 92.1011 24.1773 91.6521C23.1506 91.497 22.2717 91.1965 21.0973 91.1868C20.0682 91.3253 19.0344 92.0512 18.0098 91.6027C17.7164 91.6001 17.4272 91.0106 17.7256 90.4256Z" fill="black" fill-opacity="0.26"/>
<path d="M6.08654 95.1776C4.92601 93.4061 3.76785 91.3408 2.90337 89.278C2.61442 88.6883 2.62151 87.8072 3.06558 87.3703C6.17169 84.6051 9.71004 82.8714 13.8286 82.0235C15.2994 81.7417 15.87 83.8024 14.3971 84.3777C11.1595 85.2327 8.50433 86.6801 6.28423 88.8647C7.00779 90.1921 7.73134 91.5196 8.4549 92.8471C9.32387 94.3228 10.6374 95.3611 10.7712 96.9775C10.9098 98.0066 9.87836 98.4388 9.14534 98.2861C7.53104 98.1265 6.6642 96.3568 6.08654 95.1776Z" fill="black" fill-opacity="0.26"/>
</svg>
