<svg width="156" height="162" viewBox="0 0 156 162" fill="none" xmlns="http://www.w3.org/2000/svg">
<path d="M142.502 123.532C141.875 124.392 141.577 125.596 141.014 126.659C140.45 127.722 139.417 128.707 138.587 129.629C138.101 130.223 138.82 131.116 139.306 130.521C141.09 129.084 144.314 126.537 143.769 124.033C143.722 123.157 142.987 122.938 142.502 123.532Z" fill="black" fill-opacity="0.26"/>
<path d="M146.849 105.061C146.41 106.531 146.644 108.017 146.674 109.566C146.563 111.38 146.452 113.195 145.809 114.727C145.731 115.197 146.263 115.479 146.607 115.15C148.22 112.43 149.6 108.223 148.805 104.906C148.351 104.155 147.069 104.326 146.849 105.061Z" fill="black" fill-opacity="0.26"/>
<path d="M134.64 95.0094C135.969 95.7143 137.439 96.1535 138.627 97.1243C139.815 98.0949 140.393 99.253 141.033 100.614C141.487 101.366 142.176 100.709 142.192 100.036C141.537 96.4538 138.911 93.6987 135.423 93.2111C134.344 93.3197 133.639 94.6488 134.64 95.0094Z" fill="black" fill-opacity="0.26"/>
<path d="M121.296 95.7653C121.155 96.031 121.28 96.4378 121.608 96.7823C122.672 97.3462 123.626 96.8308 124.44 96.581C125.863 96.1443 127.146 95.9732 128.554 96.2089C129.43 96.1626 129.525 95.0208 128.79 94.8012C127.382 94.5655 126.037 94.5332 124.754 94.7043C123.55 94.4061 121.798 94.4985 121.296 95.7653Z" fill="black" fill-opacity="0.26"/>
<path d="M117.115 101.722C116.879 103.129 116.174 104.459 115.673 105.725C114.968 107.054 114.2 108.18 113.761 109.65C113.604 110.589 114.668 111.152 115.356 110.496C116.327 109.308 116.97 107.775 117.612 106.243C118.114 104.976 118.553 103.506 118.788 102.099C118.883 100.957 117.413 100.518 117.115 101.722Z" fill="black" fill-opacity="0.26"/>
<path d="M114.913 117.754C115.35 119.178 115.927 120.336 116.912 121.369C117.834 122.199 119.491 123.248 120.713 122.873C121.323 122.686 121.683 121.685 121.089 121.2C120.229 120.574 119.228 120.213 118.43 119.79C117.571 119.164 116.852 118.272 116.602 117.458C116.228 116.238 114.741 116.472 114.913 117.754Z" fill="black" fill-opacity="0.26"/>
<path d="M129.558 113.26C128.587 114.448 126.96 114.948 125.615 114.915C124.942 114.899 124.847 116.041 125.519 116.057C127.334 116.168 128.883 116.138 130.385 115.232C131.684 114.388 133.406 112.747 133.376 111.198C133.392 110.526 132.595 110.103 132.047 110.493C130.889 111.071 130.387 112.338 129.558 113.26Z" fill="black" fill-opacity="0.26"/>
<path d="M132.777 96.9161C132.62 97.8544 133.135 98.809 133.04 99.951C133.008 101.296 132.507 102.563 132.005 103.829C131.582 104.627 132.645 105.191 133.068 104.394C134.259 102.47 136.17 98.5455 134.608 96.3542C133.951 95.6658 132.731 96.0403 132.777 96.9161Z" fill="black" fill-opacity="0.26"/>
<path d="M122.639 79.1072C125.077 81.2521 127.516 83.3969 129.407 85.9326C130.063 86.6213 131.221 86.0435 130.706 85.0888C128.893 82.0841 127.16 78.6101 123.484 77.5123C122.687 77.089 121.982 78.4179 122.639 79.1072Z" fill="black" fill-opacity="0.26"/>
<path d="M107.249 75.372C106.498 75.8249 106.81 76.8419 107.342 77.1239C108.467 77.8914 110.422 77.7365 111.893 78.1756C113.363 78.6147 114.895 79.2573 116.428 79.8998C117.225 80.3228 117.93 78.9937 117.133 78.5706C115.476 77.5213 113.881 76.6753 112.286 75.8294C110.753 75.1869 108.752 74.4661 107.249 75.372Z" fill="black" fill-opacity="0.26"/>
<path d="M89.805 78.7216C89.3196 79.3156 89.8971 80.4737 90.6484 80.0207C93.8407 78.8185 96.5173 76.6619 99.568 75.7258C100.178 75.5386 99.9286 74.725 99.3184 74.9122C96.0018 75.7073 92.0907 76.0176 89.805 78.7216Z" fill="black" fill-opacity="0.26"/>
<path d="M83.4808 84.223C82.4476 85.2077 81.4144 86.1924 80.7095 87.5215C79.8014 88.9129 78.4863 90.4292 78.5164 91.9779C78.5002 92.6505 79.3601 93.2769 79.8455 92.6828C80.9411 91.9015 81.3802 90.4315 81.9438 89.3683C82.6491 88.0391 83.4947 86.4443 84.4655 85.2562C85.0922 84.3962 84.1699 83.5665 83.4808 84.223Z" fill="black" fill-opacity="0.26"/>
<path d="M75.8651 101.471C75.0191 103.066 74.8458 104.677 74.7349 106.491C74.8898 108.447 75.232 111.013 76.3415 112.453C77.0604 113.345 78.2808 112.97 78.3756 111.828C78.6598 108.403 75.9715 105.444 77.3352 101.91C77.5548 101.175 76.3505 100.877 75.8651 101.471Z" fill="black" fill-opacity="0.26"/>
<path d="M84.0062 112.772C87.3209 114.87 94.3107 118.067 97.1771 113.626C97.6001 112.829 96.8809 111.937 96.2082 111.921C94.4562 112.013 92.9534 112.92 91.4051 112.949C89.1835 112.964 86.9163 112.101 84.9146 111.38C83.7107 111.082 83.209 112.348 84.0062 112.772Z" fill="black" fill-opacity="0.26"/>
<path d="M103.334 101.055C102.692 102.587 102.253 104.057 101.61 105.59C100.764 107.184 99.5904 108.435 98.4159 109.686C97.8681 110.076 98.5873 110.968 99.1351 110.578C102.14 108.765 106.397 105.233 104.945 101.228C104.758 100.618 103.554 100.319 103.334 101.055Z" fill="black" fill-opacity="0.26"/>
<path d="M104.363 86.2726C104.501 88.9007 105.719 91.4202 104.716 93.9537C104.434 94.4852 105.232 94.9082 105.514 94.3764C107.127 91.656 107.005 88.3551 105.521 85.6947C105.396 85.2879 104.379 85.6 104.363 86.2726Z" fill="black" fill-opacity="0.26"/>
<path d="M101.859 67.2335C101.043 70.377 102.761 74.524 104.103 77.45C104.353 78.2636 105.573 77.8891 105.527 77.013C105.231 75.3235 104.669 73.4928 104.577 71.7407C104.343 70.2545 104.517 68.6435 104.08 67.2196C103.502 66.0615 102.016 66.2955 101.859 67.2335Z" fill="black" fill-opacity="0.26"/>
<path d="M89.4021 53.4739C90.5116 54.9139 91.8407 55.6188 93.2943 56.7307C94.9523 57.7798 96.2024 58.9538 97.5151 60.3318C98.1718 61.0205 99.4081 59.9735 98.955 59.2223C98.0486 57.72 96.8608 56.7491 95.6106 55.5748C94.094 54.2598 92.5776 52.9443 90.7173 51.9576C89.9199 51.5349 88.683 52.5821 89.4021 53.4739Z" fill="black" fill-opacity="0.26"/>
<path d="M71.729 49.5496C70.9774 50.0027 71.3519 51.2231 72.2283 51.1768C74.6523 51.1007 76.8742 51.0865 79.1414 51.9487C79.8764 52.1683 80.2994 51.3708 79.705 50.8856C77.2506 49.4131 74.6553 48.2069 71.729 49.5496Z" fill="black" fill-opacity="0.26"/>
<path d="M54.7055 54.996C54.0791 55.8559 55.0638 56.8891 55.815 56.436C58.2097 54.8114 60.9948 53.7338 63.5767 52.7191C64.3903 52.4694 63.9534 51.0456 63.1398 51.2952C60.1672 51.7619 56.788 52.354 54.7055 54.996Z" fill="black" fill-opacity="0.26"/>
<path d="M39.7578 66.4816C39.1314 67.3414 40.4605 68.0464 41.1493 67.3899C43.6225 65.2957 45.705 62.6537 48.1157 60.3561C48.6635 59.9654 47.9446 59.0733 47.3968 59.4639C44.392 61.2761 41.5122 63.4955 39.7578 66.4816Z" fill="black" fill-opacity="0.26"/>
<path d="M37.6062 77.6022C36.3373 79.9946 34.754 84.2635 36.6448 86.7991C37.0979 87.5503 38.3183 87.1758 38.272 86.2998C38.3044 84.9545 37.7265 83.7965 37.7588 82.4513C37.7911 81.106 38.2302 79.6359 38.9352 78.3068C39.1548 77.5718 38.0912 77.0079 37.6062 77.6022Z" fill="black" fill-opacity="0.26"/>
<path d="M40.9577 92.1523C41.5194 93.9829 42.4255 95.4853 44.2239 96.2689C45.7563 96.9114 48.8999 97.7273 50.2151 96.2109C50.9039 95.5545 50.3884 94.5999 49.5909 94.1769C48.8559 93.9573 48.4491 94.0822 47.8389 94.2694C47.2287 94.4566 46.3526 94.5029 45.6176 94.2833C44.2099 94.0476 42.4116 93.2641 41.7713 91.9027C41.5845 91.2927 40.7706 91.5424 40.9577 92.1523Z" fill="black" fill-opacity="0.26"/>
<path d="M60.6603 81.6555C59.5486 83.1094 59.0309 85.0487 58.1226 86.4406C57.0732 88.0976 55.6956 89.4105 54.318 90.7234C53.6292 91.3799 54.6139 92.4131 55.3651 91.96C58.3699 90.1478 62.5027 86.209 62.4586 82.439C62.4124 81.563 61.1458 81.0618 60.6603 81.6555Z" fill="black" fill-opacity="0.26"/>
<path d="M64.758 62.3712C64.4437 64.2481 64.7396 65.9377 64.6911 67.9556C64.83 70.584 64.2337 72.9926 63.1682 75.3225C62.6041 76.3854 64.1991 77.2317 64.7631 76.1684C66.9404 72.3846 68.0243 66.4881 66.7136 62.2166C66.4636 61.4031 64.9152 61.4328 64.758 62.3712Z" fill="black" fill-opacity="0.26"/>
<path d="M46.0121 49.8742C47.3412 50.5791 48.8274 50.3456 50.1727 50.3779C51.9871 50.4888 54.0674 50.7407 55.8034 51.3212C56.8666 51.8848 57.7125 50.2899 56.6493 49.726C55.0543 48.88 53.3186 48.3002 51.645 47.9232C49.9714 47.5461 47.8288 47.0912 46.264 47.7939C45.5127 48.2466 45.2146 49.4512 46.0121 49.8742Z" fill="black" fill-opacity="0.26"/>
<path d="M29.7442 49.0791C32.793 51.0368 37.7209 50.4149 40.913 49.2129C41.93 48.9008 41.4931 47.477 40.4136 47.5857C38.9275 47.8195 37.1754 47.9117 35.6267 47.9417C33.8122 47.8308 32.0139 47.0473 30.2619 47.1398C29.2448 47.4519 28.9465 48.6566 29.7442 49.0791Z" fill="black" fill-opacity="0.26"/>
<path d="M16.4673 44.2509C16.6383 45.5337 17.9674 46.2387 18.8274 46.8654C19.9531 47.6328 21.3607 47.8685 22.5026 47.9632C23.6444 48.058 24.021 46.3841 22.8793 46.2897C21.8784 45.9292 20.9399 45.7717 19.8767 45.2081C19.0169 44.5817 18.439 43.4237 17.297 43.3286C17.0313 43.188 16.4834 43.5783 16.4673 44.2509Z" fill="black" fill-opacity="0.26"/>
<path d="M8.29395 34.2961C6.38474 35.3271 4.33454 36.6238 2.55016 38.0616C2.00237 38.4522 1.5794 39.2497 1.76664 39.8599C3.21832 43.8656 5.56219 47.1523 8.86066 49.9237C10.0488 50.8944 11.5672 49.3154 10.5202 48.0791C8.01919 45.7308 6.33168 43.1324 5.39558 40.0817C6.69458 39.238 7.99357 38.3943 9.29257 37.5506C10.7949 36.6441 12.4846 36.3486 13.393 34.9571C14.0193 34.0972 13.3005 33.205 12.5654 32.9854C11.0328 32.3426 9.38922 33.5149 8.29395 34.2961Z" fill="black" fill-opacity="0.26"/>
</svg>
